%!PS-Adobe-3.0 EPSF-3.0
%%Title: /Users/wu-chuan/z.proj/PROJ.SAL/plot.sal/plot.sal.parameter-analysis/sec-5-param-analysis.eps
%%Creator: matplotlib version 3.2.1, http://matplotlib.org/
%%CreationDate: Tue Jun 30 14:13:02 2020
%%Orientation: portrait
%%BoundingBox: -414.0 180.0 1026.0 612.0
%%EndComments
%%BeginProlog
/mpldict 8 dict def
mpldict begin
/m { moveto } bind def
/l { lineto } bind def
/r { rlineto } bind def
/c { curveto } bind def
/cl { closepath } bind def
/box {
m
1 index 0 r
0 exch r
neg 0 r
cl
} bind def
/clipbox {
box
clip
newpath
} bind def
%!PS-Adobe-3.0 Resource-Font
%%Title: DejaVu Sans
%%Copyright: Copyright (c) 2003 by Bitstream, Inc. All Rights Reserved. Copyright (c) 2006 by Tavmjong Bah. All Rights Reserved. DejaVu changes are in public domain 
%%Creator: Converted from TrueType to type 3 by PPR
25 dict begin
/_d{bind def}bind def
/_m{moveto}_d
/_l{lineto}_d
/_cl{closepath eofill}_d
/_c{curveto}_d
/_sc{7 -1 roll{setcachedevice}{pop pop pop pop pop pop}ifelse}_d
/_e{exec}_d
/FontName /DejaVuSans def
/PaintType 0 def
/FontMatrix[.001 0 0 .001 0 0]def
/FontBBox[-1021 -463 1793 1232]def
/FontType 3 def
/Encoding [ /space /parenleft /parenright /hyphen /zero /one /two /three /five /six /seven /eight /nine /A /B /C /D /E /L /M /N /O /P /S /T /a /b /c /d /e /f /g /h /i /m /n /o /p /r /s /t /u /v /x /y ] def
/FontInfo 10 dict dup begin
/FamilyName (DejaVu Sans) def
/FullName (DejaVu Sans) def
/Notice (Copyright (c) 2003 by Bitstream, Inc. All Rights Reserved. Copyright (c) 2006 by Tavmjong Bah. All Rights Reserved. DejaVu changes are in public domain ) def
/Weight (Book) def
/Version (Version 2.35) def
/ItalicAngle 0.0 def
/isFixedPitch false def
/UnderlinePosition -130 def
/UnderlineThickness 90 def
end readonly def
/CharStrings 46 dict dup begin
/.notdef 0 def
/space{318 0 0 0 0 0 _sc
}_d
/parenleft{390 0 86 -131 310 759 _sc
310 759 _m
266 683 234 609 213 536 _c
191 463 181 389 181 314 _c
181 238 191 164 213 91 _c
234 17 266 -56 310 -131 _c
232 -131 _l
183 -54 146 20 122 94 _c
98 168 86 241 86 314 _c
86 386 98 459 122 533 _c
146 607 182 682 232 759 _c
310 759 _l
_cl}_d
/parenright{390 0 80 -131 304 759 _sc
80 759 _m
158 759 _l
206 682 243 607 267 533 _c
291 459 304 386 304 314 _c
304 241 291 168 267 94 _c
243 20 206 -54 158 -131 _c
80 -131 _l
123 -56 155 17 177 91 _c
198 164 209 238 209 314 _c
209 389 198 463 177 536 _c
155 609 123 683 80 759 _c
_cl}_d
/hyphen{361 0 49 234 312 314 _sc
49 314 _m
312 314 _l
312 234 _l
49 234 _l
49 314 _l
_cl}_d
/zero{636 0 66 -13 570 742 _sc
318 664 _m
267 664 229 639 203 589 _c
177 539 165 464 165 364 _c
165 264 177 189 203 139 _c
229 89 267 64 318 64 _c
369 64 407 89 433 139 _c
458 189 471 264 471 364 _c
471 464 458 539 433 589 _c
407 639 369 664 318 664 _c
318 742 _m
399 742 461 709 505 645 _c
548 580 570 486 570 364 _c
570 241 548 147 505 83 _c
461 19 399 -13 318 -13 _c
236 -13 173 19 130 83 _c
87 147 66 241 66 364 _c
66 486 87 580 130 645 _c
173 709 236 742 318 742 _c
_cl}_d
/one{636 0 110 0 544 729 _sc
124 83 _m
285 83 _l
285 639 _l
110 604 _l
110 694 _l
284 729 _l
383 729 _l
383 83 _l
544 83 _l
544 0 _l
124 0 _l
124 83 _l
_cl}_d
/two{{636 0 73 0 536 742 _sc
192 83 _m
536 83 _l
536 0 _l
73 0 _l
73 83 _l
110 121 161 173 226 239 _c
290 304 331 346 348 365 _c
380 400 402 430 414 455 _c
426 479 433 504 433 528 _c
433 566 419 598 392 622 _c
365 646 330 659 286 659 _c
255 659 222 653 188 643 _c
154 632 117 616 78 594 _c
78 694 _l
118 710 155 722 189 730 _c
223 738 255 742 284 742 _c
}_e{359 742 419 723 464 685 _c
509 647 532 597 532 534 _c
532 504 526 475 515 449 _c
504 422 484 390 454 354 _c
446 344 420 317 376 272 _c
332 227 271 164 192 83 _c
_cl}_e}_d
/three{{636 0 76 -13 556 742 _sc
406 393 _m
453 383 490 362 516 330 _c
542 298 556 258 556 212 _c
556 140 531 84 482 45 _c
432 6 362 -13 271 -13 _c
240 -13 208 -10 176 -4 _c
144 1 110 10 76 22 _c
76 117 _l
103 101 133 89 166 81 _c
198 73 232 69 268 69 _c
330 69 377 81 409 105 _c
441 129 458 165 458 212 _c
458 254 443 288 413 312 _c
383 336 341 349 287 349 _c
}_e{202 349 _l
202 430 _l
291 430 _l
339 430 376 439 402 459 _c
428 478 441 506 441 543 _c
441 580 427 609 401 629 _c
374 649 336 659 287 659 _c
260 659 231 656 200 650 _c
169 644 135 635 98 623 _c
98 711 _l
135 721 170 729 203 734 _c
235 739 266 742 296 742 _c
370 742 429 725 473 691 _c
517 657 539 611 539 553 _c
539 513 527 479 504 451 _c
481 423 448 403 406 393 _c
_cl}_e}_d
/five{{636 0 77 -13 549 729 _sc
108 729 _m
495 729 _l
495 646 _l
198 646 _l
198 467 _l
212 472 227 476 241 478 _c
255 480 270 482 284 482 _c
365 482 429 459 477 415 _c
525 370 549 310 549 234 _c
549 155 524 94 475 51 _c
426 8 357 -13 269 -13 _c
238 -13 207 -10 175 -6 _c
143 -1 111 6 77 17 _c
77 116 _l
106 100 136 88 168 80 _c
199 72 232 69 267 69 _c
}_e{323 69 368 83 401 113 _c
433 143 450 183 450 234 _c
450 284 433 324 401 354 _c
368 384 323 399 267 399 _c
241 399 214 396 188 390 _c
162 384 135 375 108 363 _c
108 729 _l
_cl}_e}_d
/six{{636 0 70 -13 573 742 _sc
330 404 _m
286 404 251 388 225 358 _c
199 328 186 286 186 234 _c
186 181 199 139 225 109 _c
251 79 286 64 330 64 _c
374 64 409 79 435 109 _c
461 139 474 181 474 234 _c
474 286 461 328 435 358 _c
409 388 374 404 330 404 _c
526 713 _m
526 623 _l
501 635 476 644 451 650 _c
425 656 400 659 376 659 _c
310 659 260 637 226 593 _c
}_e{192 549 172 482 168 394 _c
187 422 211 444 240 459 _c
269 474 301 482 336 482 _c
409 482 467 459 509 415 _c
551 371 573 310 573 234 _c
573 159 550 99 506 54 _c
462 9 403 -13 330 -13 _c
246 -13 181 19 137 83 _c
92 147 70 241 70 364 _c
70 479 97 571 152 639 _c
206 707 280 742 372 742 _c
396 742 421 739 447 735 _c
472 730 498 723 526 713 _c
_cl}_e}_d
/seven{636 0 82 0 551 729 _sc
82 729 _m
551 729 _l
551 687 _l
286 0 _l
183 0 _l
432 646 _l
82 646 _l
82 729 _l
_cl}_d
/eight{{636 0 68 -13 568 742 _sc
318 346 _m
271 346 234 333 207 308 _c
180 283 167 249 167 205 _c
167 161 180 126 207 101 _c
234 76 271 64 318 64 _c
364 64 401 76 428 102 _c
455 127 469 161 469 205 _c
469 249 455 283 429 308 _c
402 333 365 346 318 346 _c
219 388 _m
177 398 144 418 120 447 _c
96 476 85 511 85 553 _c
85 611 105 657 147 691 _c
188 725 245 742 318 742 _c
}_e{390 742 447 725 489 691 _c
530 657 551 611 551 553 _c
551 511 539 476 515 447 _c
491 418 459 398 417 388 _c
464 377 501 355 528 323 _c
554 291 568 251 568 205 _c
568 134 546 80 503 43 _c
459 5 398 -13 318 -13 _c
237 -13 175 5 132 43 _c
89 80 68 134 68 205 _c
68 251 81 291 108 323 _c
134 355 171 377 219 388 _c
183 544 _m
183 506 194 476 218 455 _c
}_e{242 434 275 424 318 424 _c
360 424 393 434 417 455 _c
441 476 453 506 453 544 _c
453 582 441 611 417 632 _c
393 653 360 664 318 664 _c
275 664 242 653 218 632 _c
194 611 183 582 183 544 _c
_cl}_e}_d
/nine{{636 0 63 -13 566 742 _sc
110 15 _m
110 105 _l
134 93 159 84 185 78 _c
210 72 235 69 260 69 _c
324 69 374 90 408 134 _c
442 178 462 244 468 334 _c
448 306 424 284 396 269 _c
367 254 335 247 300 247 _c
226 247 168 269 126 313 _c
84 357 63 417 63 494 _c
63 568 85 628 129 674 _c
173 719 232 742 306 742 _c
390 742 455 709 499 645 _c
543 580 566 486 566 364 _c
}_e{566 248 538 157 484 89 _c
429 21 356 -13 264 -13 _c
239 -13 214 -10 189 -6 _c
163 -2 137 5 110 15 _c
306 324 _m
350 324 385 339 411 369 _c
437 399 450 441 450 494 _c
450 546 437 588 411 618 _c
385 648 350 664 306 664 _c
262 664 227 648 201 618 _c
175 588 162 546 162 494 _c
162 441 175 399 201 369 _c
227 339 262 324 306 324 _c
_cl}_e}_d
/A{684 0 8 0 676 729 _sc
342 632 _m
208 269 _l
476 269 _l
342 632 _l
286 729 _m
398 729 _l
676 0 _l
573 0 _l
507 187 _l
178 187 _l
112 0 _l
8 0 _l
286 729 _l
_cl}_d
/B{{686 0 98 0 615 729 _sc
197 348 _m
197 81 _l
355 81 _l
408 81 447 92 473 114 _c
498 136 511 169 511 215 _c
511 260 498 293 473 315 _c
447 337 408 348 355 348 _c
197 348 _l
197 648 _m
197 428 _l
343 428 _l
391 428 426 437 450 455 _c
474 473 486 500 486 538 _c
486 574 474 602 450 620 _c
426 638 391 648 343 648 _c
197 648 _l
98 729 _m
350 729 _l
}_e{425 729 483 713 524 682 _c
564 650 585 606 585 549 _c
585 504 574 468 553 442 _c
532 416 502 399 462 393 _c
510 382 548 360 575 327 _c
601 294 615 253 615 204 _c
615 138 592 88 548 53 _c
504 17 441 0 360 0 _c
98 0 _l
98 729 _l
_cl}_e}_d
/C{{698 0 56 -13 644 742 _sc
644 673 _m
644 569 _l
610 599 575 622 537 638 _c
499 653 460 661 418 661 _c
334 661 270 635 226 584 _c
182 533 160 460 160 364 _c
160 268 182 194 226 143 _c
270 92 334 67 418 67 _c
460 67 499 74 537 90 _c
575 105 610 128 644 159 _c
644 56 _l
609 32 572 15 534 4 _c
496 -7 455 -13 412 -13 _c
302 -13 215 20 151 87 _c
}_e{87 154 56 246 56 364 _c
56 481 87 573 151 641 _c
215 708 302 742 412 742 _c
456 742 497 736 535 725 _c
573 713 610 696 644 673 _c
_cl}_e}_d
/D{770 0 98 0 711 729 _sc
197 648 _m
197 81 _l
316 81 _l
416 81 490 103 537 149 _c
583 195 607 267 607 365 _c
607 463 583 534 537 580 _c
490 625 416 648 316 648 _c
197 648 _l
98 729 _m
301 729 _l
442 729 546 699 612 641 _c
678 582 711 490 711 365 _c
711 239 677 147 611 88 _c
545 29 441 0 301 0 _c
98 0 _l
98 729 _l
_cl}_d
/E{632 0 98 0 568 729 _sc
98 729 _m
559 729 _l
559 646 _l
197 646 _l
197 430 _l
544 430 _l
544 347 _l
197 347 _l
197 83 _l
568 83 _l
568 0 _l
98 0 _l
98 729 _l
_cl}_d
/L{557 0 98 0 552 729 _sc
98 729 _m
197 729 _l
197 83 _l
552 83 _l
552 0 _l
98 0 _l
98 729 _l
_cl}_d
/M{863 0 98 0 765 729 _sc
98 729 _m
245 729 _l
431 233 _l
618 729 _l
765 729 _l
765 0 _l
669 0 _l
669 640 _l
481 140 _l
382 140 _l
194 640 _l
194 0 _l
98 0 _l
98 729 _l
_cl}_d
/N{748 0 98 0 650 729 _sc
98 729 _m
231 729 _l
554 119 _l
554 729 _l
650 729 _l
650 0 _l
517 0 _l
194 610 _l
194 0 _l
98 0 _l
98 729 _l
_cl}_d
/O{787 0 56 -13 731 742 _sc
394 662 _m
322 662 265 635 223 582 _c
181 528 160 456 160 364 _c
160 272 181 199 223 146 _c
265 92 322 66 394 66 _c
465 66 522 92 564 146 _c
606 199 627 272 627 364 _c
627 456 606 528 564 582 _c
522 635 465 662 394 662 _c
394 742 _m
496 742 577 707 639 639 _c
700 571 731 479 731 364 _c
731 248 700 157 639 89 _c
577 21 496 -13 394 -13 _c
291 -13 209 21 148 89 _c
86 157 56 248 56 364 _c
56 479 86 571 148 639 _c
209 707 291 742 394 742 _c
_cl}_d
/P{603 0 98 0 569 729 _sc
197 648 _m
197 374 _l
321 374 _l
367 374 402 385 427 409 _c
452 433 465 467 465 511 _c
465 555 452 588 427 612 _c
402 636 367 648 321 648 _c
197 648 _l
98 729 _m
321 729 _l
402 729 464 710 506 673 _c
548 636 569 582 569 511 _c
569 439 548 384 506 348 _c
464 311 402 293 321 293 _c
197 293 _l
197 0 _l
98 0 _l
98 729 _l
_cl}_d
/S{{635 0 66 -13 579 742 _sc
535 705 _m
535 609 _l
497 627 462 640 429 649 _c
395 657 363 662 333 662 _c
279 662 237 651 208 631 _c
179 610 165 580 165 542 _c
165 510 174 485 194 469 _c
213 452 250 439 304 429 _c
364 417 _l
437 403 491 378 526 343 _c
561 307 579 260 579 201 _c
579 130 555 77 508 41 _c
460 5 391 -13 300 -13 _c
265 -13 228 -9 189 -2 _c
}_e{150 5 110 16 69 32 _c
69 134 _l
109 111 148 94 186 83 _c
224 71 262 66 300 66 _c
356 66 399 77 430 99 _c
460 121 476 152 476 194 _c
476 230 465 258 443 278 _c
421 298 385 313 335 323 _c
275 335 _l
201 349 148 372 115 404 _c
82 435 66 478 66 534 _c
66 598 88 649 134 686 _c
179 723 242 742 322 742 _c
356 742 390 739 426 733 _c
461 727 497 717 535 705 _c
}_e{_cl}_e}_d
/T{611 0 -2 0 614 729 _sc
-2 729 _m
614 729 _l
614 646 _l
355 646 _l
355 0 _l
256 0 _l
256 646 _l
-2 646 _l
-2 729 _l
_cl}_d
/a{{613 0 60 -13 522 560 _sc
343 275 _m
270 275 220 266 192 250 _c
164 233 150 205 150 165 _c
150 133 160 107 181 89 _c
202 70 231 61 267 61 _c
317 61 357 78 387 114 _c
417 149 432 196 432 255 _c
432 275 _l
343 275 _l
522 312 _m
522 0 _l
432 0 _l
432 83 _l
411 49 385 25 355 10 _c
325 -5 287 -13 243 -13 _c
187 -13 142 2 109 33 _c
76 64 60 106 60 159 _c
}_e{60 220 80 266 122 298 _c
163 329 224 345 306 345 _c
432 345 _l
432 354 _l
432 395 418 427 391 450 _c
364 472 326 484 277 484 _c
245 484 215 480 185 472 _c
155 464 127 453 100 439 _c
100 522 _l
132 534 164 544 195 550 _c
226 556 256 560 286 560 _c
365 560 424 539 463 498 _c
502 457 522 395 522 312 _c
_cl}_e}_d
/b{{635 0 91 -13 580 760 _sc
487 273 _m
487 339 473 390 446 428 _c
418 466 381 485 334 485 _c
286 485 249 466 222 428 _c
194 390 181 339 181 273 _c
181 207 194 155 222 117 _c
249 79 286 61 334 61 _c
381 61 418 79 446 117 _c
473 155 487 207 487 273 _c
181 464 _m
199 496 223 520 252 536 _c
281 552 316 560 356 560 _c
422 560 476 533 518 481 _c
559 428 580 359 580 273 _c
}_e{580 187 559 117 518 65 _c
476 13 422 -13 356 -13 _c
316 -13 281 -5 252 10 _c
223 25 199 49 181 82 _c
181 0 _l
91 0 _l
91 760 _l
181 760 _l
181 464 _l
_cl}_e}_d
/c{{550 0 55 -13 488 560 _sc
488 526 _m
488 442 _l
462 456 437 466 411 473 _c
385 480 360 484 334 484 _c
276 484 230 465 198 428 _c
166 391 150 339 150 273 _c
150 206 166 154 198 117 _c
230 80 276 62 334 62 _c
360 62 385 65 411 72 _c
437 79 462 90 488 104 _c
488 21 _l
462 9 436 0 410 -5 _c
383 -10 354 -13 324 -13 _c
242 -13 176 12 128 64 _c
}_e{79 115 55 185 55 273 _c
55 362 79 432 128 483 _c
177 534 244 560 330 560 _c
358 560 385 557 411 551 _c
437 545 463 537 488 526 _c
_cl}_e}_d
/d{{635 0 55 -13 544 760 _sc
454 464 _m
454 760 _l
544 760 _l
544 0 _l
454 0 _l
454 82 _l
435 49 411 25 382 10 _c
353 -5 319 -13 279 -13 _c
213 -13 159 13 117 65 _c
75 117 55 187 55 273 _c
55 359 75 428 117 481 _c
159 533 213 560 279 560 _c
319 560 353 552 382 536 _c
411 520 435 496 454 464 _c
148 273 _m
148 207 161 155 188 117 _c
215 79 253 61 301 61 _c
}_e{348 61 385 79 413 117 _c
440 155 454 207 454 273 _c
454 339 440 390 413 428 _c
385 466 348 485 301 485 _c
253 485 215 466 188 428 _c
161 390 148 339 148 273 _c
_cl}_e}_d
/e{{615 0 55 -13 562 560 _sc
562 296 _m
562 252 _l
149 252 _l
153 190 171 142 205 110 _c
238 78 284 62 344 62 _c
378 62 412 66 444 74 _c
476 82 509 95 541 113 _c
541 28 _l
509 14 476 3 442 -3 _c
408 -9 373 -13 339 -13 _c
251 -13 182 12 131 62 _c
80 112 55 181 55 268 _c
55 357 79 428 127 481 _c
175 533 241 560 323 560 _c
397 560 455 536 498 489 _c
}_e{540 441 562 377 562 296 _c
472 322 _m
471 371 457 410 431 440 _c
404 469 368 484 324 484 _c
274 484 234 469 204 441 _c
174 413 156 373 152 322 _c
472 322 _l
_cl}_e}_d
/f{352 0 23 0 371 760 _sc
371 760 _m
371 685 _l
285 685 _l
253 685 230 678 218 665 _c
205 652 199 629 199 595 _c
199 547 _l
347 547 _l
347 477 _l
199 477 _l
199 0 _l
109 0 _l
109 477 _l
23 477 _l
23 547 _l
109 547 _l
109 585 _l
109 645 123 690 151 718 _c
179 746 224 760 286 760 _c
371 760 _l
_cl}_d
/g{{635 0 55 -207 544 560 _sc
454 280 _m
454 344 440 395 414 431 _c
387 467 349 485 301 485 _c
253 485 215 467 188 431 _c
161 395 148 344 148 280 _c
148 215 161 165 188 129 _c
215 93 253 75 301 75 _c
349 75 387 93 414 129 _c
440 165 454 215 454 280 _c
544 68 _m
544 -24 523 -93 482 -139 _c
440 -184 377 -207 292 -207 _c
260 -207 231 -204 203 -200 _c
175 -195 147 -188 121 -178 _c
}_e{121 -91 _l
147 -105 173 -115 199 -122 _c
225 -129 251 -133 278 -133 _c
336 -133 380 -117 410 -87 _c
439 -56 454 -10 454 52 _c
454 96 _l
435 64 411 40 382 24 _c
353 8 319 0 279 0 _c
211 0 157 25 116 76 _c
75 127 55 195 55 280 _c
55 364 75 432 116 483 _c
157 534 211 560 279 560 _c
319 560 353 552 382 536 _c
411 520 435 496 454 464 _c
454 547 _l
544 547 _l
}_e{544 68 _l
_cl}_e}_d
/h{634 0 91 0 549 760 _sc
549 330 _m
549 0 _l
459 0 _l
459 327 _l
459 379 448 417 428 443 _c
408 469 378 482 338 482 _c
289 482 251 466 223 435 _c
195 404 181 362 181 309 _c
181 0 _l
91 0 _l
91 760 _l
181 760 _l
181 462 _l
202 494 227 519 257 535 _c
286 551 320 560 358 560 _c
420 560 468 540 500 501 _c
532 462 549 405 549 330 _c
_cl}_d
/i{278 0 94 0 184 760 _sc
94 547 _m
184 547 _l
184 0 _l
94 0 _l
94 547 _l
94 760 _m
184 760 _l
184 646 _l
94 646 _l
94 760 _l
_cl}_d
/m{{974 0 91 0 889 560 _sc
520 442 _m
542 482 569 511 600 531 _c
631 550 668 560 711 560 _c
767 560 811 540 842 500 _c
873 460 889 403 889 330 _c
889 0 _l
799 0 _l
799 327 _l
799 379 789 418 771 444 _c
752 469 724 482 686 482 _c
639 482 602 466 575 435 _c
548 404 535 362 535 309 _c
535 0 _l
445 0 _l
445 327 _l
445 379 435 418 417 444 _c
398 469 369 482 331 482 _c
}_e{285 482 248 466 221 435 _c
194 404 181 362 181 309 _c
181 0 _l
91 0 _l
91 547 _l
181 547 _l
181 462 _l
201 495 226 520 255 536 _c
283 552 317 560 357 560 _c
397 560 430 550 458 530 _c
486 510 506 480 520 442 _c
_cl}_e}_d
/n{634 0 91 0 549 560 _sc
549 330 _m
549 0 _l
459 0 _l
459 327 _l
459 379 448 417 428 443 _c
408 469 378 482 338 482 _c
289 482 251 466 223 435 _c
195 404 181 362 181 309 _c
181 0 _l
91 0 _l
91 547 _l
181 547 _l
181 462 _l
202 494 227 519 257 535 _c
286 551 320 560 358 560 _c
420 560 468 540 500 501 _c
532 462 549 405 549 330 _c
_cl}_d
/o{612 0 55 -13 557 560 _sc
306 484 _m
258 484 220 465 192 427 _c
164 389 150 338 150 273 _c
150 207 163 156 191 118 _c
219 80 257 62 306 62 _c
354 62 392 80 420 118 _c
448 156 462 207 462 273 _c
462 337 448 389 420 427 _c
392 465 354 484 306 484 _c
306 560 _m
384 560 445 534 490 484 _c
534 433 557 363 557 273 _c
557 183 534 113 490 63 _c
445 12 384 -13 306 -13 _c
227 -13 165 12 121 63 _c
77 113 55 183 55 273 _c
55 363 77 433 121 484 _c
165 534 227 560 306 560 _c
_cl}_d
/p{{635 0 91 -207 580 560 _sc
181 82 _m
181 -207 _l
91 -207 _l
91 547 _l
181 547 _l
181 464 _l
199 496 223 520 252 536 _c
281 552 316 560 356 560 _c
422 560 476 533 518 481 _c
559 428 580 359 580 273 _c
580 187 559 117 518 65 _c
476 13 422 -13 356 -13 _c
316 -13 281 -5 252 10 _c
223 25 199 49 181 82 _c
487 273 _m
487 339 473 390 446 428 _c
418 466 381 485 334 485 _c
}_e{286 485 249 466 222 428 _c
194 390 181 339 181 273 _c
181 207 194 155 222 117 _c
249 79 286 61 334 61 _c
381 61 418 79 446 117 _c
473 155 487 207 487 273 _c
_cl}_e}_d
/r{411 0 91 0 411 560 _sc
411 463 _m
401 469 390 473 378 476 _c
366 478 353 480 339 480 _c
288 480 249 463 222 430 _c
194 397 181 350 181 288 _c
181 0 _l
91 0 _l
91 547 _l
181 547 _l
181 462 _l
199 495 224 520 254 536 _c
284 552 321 560 365 560 _c
371 560 378 559 386 559 _c
393 558 401 557 411 555 _c
411 463 _l
_cl}_d
/s{{521 0 54 -13 472 560 _sc
443 531 _m
443 446 _l
417 458 391 468 364 475 _c
336 481 308 485 279 485 _c
234 485 200 478 178 464 _c
156 450 145 430 145 403 _c
145 382 153 366 169 354 _c
185 342 217 330 265 320 _c
296 313 _l
360 299 405 279 432 255 _c
458 230 472 195 472 151 _c
472 100 452 60 412 31 _c
372 1 316 -13 246 -13 _c
216 -13 186 -10 154 -5 _c
}_e{122 0 89 8 54 20 _c
54 113 _l
87 95 120 82 152 74 _c
184 65 216 61 248 61 _c
290 61 323 68 346 82 _c
368 96 380 117 380 144 _c
380 168 371 187 355 200 _c
339 213 303 226 247 238 _c
216 245 _l
160 257 119 275 95 299 _c
70 323 58 356 58 399 _c
58 450 76 490 112 518 _c
148 546 200 560 268 560 _c
301 560 332 557 362 552 _c
391 547 418 540 443 531 _c
}_e{_cl}_e}_d
/t{392 0 27 0 368 702 _sc
183 702 _m
183 547 _l
368 547 _l
368 477 _l
183 477 _l
183 180 _l
183 135 189 106 201 94 _c
213 81 238 75 276 75 _c
368 75 _l
368 0 _l
276 0 _l
206 0 158 13 132 39 _c
106 65 93 112 93 180 _c
93 477 _l
27 477 _l
27 547 _l
93 547 _l
93 702 _l
183 702 _l
_cl}_d
/u{634 0 85 -13 543 560 _sc
85 216 _m
85 547 _l
175 547 _l
175 219 _l
175 167 185 129 205 103 _c
225 77 255 64 296 64 _c
344 64 383 79 411 110 _c
439 141 453 183 453 237 _c
453 547 _l
543 547 _l
543 0 _l
453 0 _l
453 84 _l
431 50 405 26 377 10 _c
348 -5 315 -13 277 -13 _c
214 -13 166 6 134 45 _c
101 83 85 140 85 216 _c
311 560 _m
311 560 _l
_cl}_d
/v{592 0 30 0 562 547 _sc
30 547 _m
125 547 _l
296 88 _l
467 547 _l
562 547 _l
357 0 _l
235 0 _l
30 547 _l
_cl}_d
/x{592 0 29 0 559 547 _sc
549 547 _m
351 281 _l
559 0 _l
453 0 _l
294 215 _l
135 0 _l
29 0 _l
241 286 _l
47 547 _l
153 547 _l
298 352 _l
443 547 _l
549 547 _l
_cl}_d
/y{592 0 30 -207 562 547 _sc
322 -50 _m
296 -114 271 -157 247 -177 _c
223 -197 191 -207 151 -207 _c
79 -207 _l
79 -132 _l
132 -132 _l
156 -132 175 -126 189 -114 _c
203 -102 218 -75 235 -31 _c
251 9 _l
30 547 _l
125 547 _l
296 119 _l
467 547 _l
562 547 _l
322 -50 _l
_cl}_d
end readonly def

/BuildGlyph
 {exch begin
 CharStrings exch
 2 copy known not{pop /.notdef}if
 true 3 1 roll get exec
 end}_d

/BuildChar {
 1 index /Encoding get exch get
 1 index /BuildGlyph get exec
}_d

FontName currentdict end definefont pop
end
%%EndProlog
mpldict begin
-414 180 translate
1440 432 0 0 clipbox
gsave
0 0 m
1440 0 l
1440 432 l
0 432 l
cl
1.000 setgray
fill
grestore
gsave
180 47.52 m
508.235294 47.52 l
508.235294 380.16 l
180 380.16 l
cl
1.000 setgray
fill
grestore
0.800 setlinewidth
1 setlinejoin
0 setlinecap
[] 0 setdash
0.000 setgray
gsave
/o {
gsave
newpath
translate
0.8 setlinewidth
1 setlinejoin
0 setlinecap
0 0 m
0 -3.5 l

gsave
0.000 setgray
fill
grestore
stroke
grestore
} bind def
194.92 47.52 o
grestore
/DejaVuSans findfont
16.000 scalefont
setfont
gsave
189.826036 28.363750 translate
0.000000 rotate
0.000000 0 m /five glyphshow
grestore
gsave
/o {
gsave
newpath
translate
0.8 setlinewidth
1 setlinejoin
0 setlinecap
0 0 m
0 -3.5 l

gsave
0.000 setgray
fill
grestore
stroke
grestore
} bind def
294.385 47.52 o
grestore
gsave
284.197527 28.363750 translate
0.000000 rotate
0.000000 0 m /one glyphshow
10.179688 0 m /zero glyphshow
grestore
gsave
/o {
gsave
newpath
translate
0.8 setlinewidth
1 setlinejoin
0 setlinecap
0 0 m
0 -3.5 l

gsave
0.000 setgray
fill
grestore
stroke
grestore
} bind def
393.85 47.52 o
grestore
gsave
383.662767 28.363750 translate
0.000000 rotate
0.000000 0 m /one glyphshow
10.179688 0 m /five glyphshow
grestore
gsave
/o {
gsave
newpath
translate
0.8 setlinewidth
1 setlinejoin
0 setlinecap
0 0 m
0 -3.5 l

gsave
0.000 setgray
fill
grestore
stroke
grestore
} bind def
493.316 47.52 o
grestore
gsave
483.128008 28.363750 translate
0.000000 rotate
0.000000 0 m /two glyphshow
10.179688 0 m /zero glyphshow
grestore
gsave
180.687960 8.879375 translate
0.000000 rotate
0.000000 0 m /parenleft glyphshow
6.242188 0 m /a glyphshow
16.046875 0 m /parenright glyphshow
22.289062 0 m /space glyphshow
27.375000 0 m /M glyphshow
41.179688 0 m /a glyphshow
50.984375 0 m /x glyphshow
60.453125 0 m /i glyphshow
64.898438 0 m /m glyphshow
80.484375 0 m /u glyphshow
90.625000 0 m /m glyphshow
106.210938 0 m /space glyphshow
111.296875 0 m /N glyphshow
123.265625 0 m /u glyphshow
133.406250 0 m /m glyphshow
148.992188 0 m /b glyphshow
159.148438 0 m /e glyphshow
168.992188 0 m /r glyphshow
175.570312 0 m /space glyphshow
180.656250 0 m /o glyphshow
190.445312 0 m /f glyphshow
196.078125 0 m /space glyphshow
201.164062 0 m /T glyphshow
208.562500 0 m /r glyphshow
215.140625 0 m /a glyphshow
224.945312 0 m /i glyphshow
229.390625 0 m /n glyphshow
239.531250 0 m /i glyphshow
243.976562 0 m /n glyphshow
254.117188 0 m /g glyphshow
264.273438 0 m /space glyphshow
269.359375 0 m /E glyphshow
279.468750 0 m /p glyphshow
289.625000 0 m /o glyphshow
299.414062 0 m /c glyphshow
308.210938 0 m /h glyphshow
318.351562 0 m /s glyphshow
grestore
gsave
/o {
gsave
newpath
translate
0.8 setlinewidth
1 setlinejoin
0 setlinecap
0 0 m
-3.5 0 l

gsave
0.000 setgray
fill
grestore
stroke
grestore
} bind def
180 47.52 o
grestore
gsave
152.625000 41.441875 translate
0.000000 rotate
0.000000 0 m /six glyphshow
10.179688 0 m /zero glyphshow
grestore
gsave
/o {
gsave
newpath
translate
0.8 setlinewidth
1 setlinejoin
0 setlinecap
0 0 m
-3.5 0 l

gsave
0.000 setgray
fill
grestore
stroke
grestore
} bind def
180 130.68 o
grestore
gsave
152.625000 124.601875 translate
0.000000 rotate
0.000000 0 m /six glyphshow
10.179688 0 m /three glyphshow
grestore
gsave
/o {
gsave
newpath
translate
0.8 setlinewidth
1 setlinejoin
0 setlinecap
0 0 m
-3.5 0 l

gsave
0.000 setgray
fill
grestore
stroke
grestore
} bind def
180 213.84 o
grestore
gsave
152.625000 207.761875 translate
0.000000 rotate
0.000000 0 m /six glyphshow
10.179688 0 m /six glyphshow
grestore
gsave
/o {
gsave
newpath
translate
0.8 setlinewidth
1 setlinejoin
0 setlinecap
0 0 m
-3.5 0 l

gsave
0.000 setgray
fill
grestore
stroke
grestore
} bind def
180 297 o
grestore
gsave
152.625000 290.921875 translate
0.000000 rotate
0.000000 0 m /six glyphshow
10.179688 0 m /nine glyphshow
grestore
gsave
/o {
gsave
newpath
translate
0.8 setlinewidth
1 setlinejoin
0 setlinecap
0 0 m
-3.5 0 l

gsave
0.000 setgray
fill
grestore
stroke
grestore
} bind def
180 380.16 o
grestore
gsave
152.625000 374.081875 translate
0.000000 rotate
0.000000 0 m /seven glyphshow
10.179688 0 m /two glyphshow
grestore
gsave
145.296875 118.332188 translate
90.000000 rotate
0.000000 0 m /M glyphshow
13.804688 0 m /e glyphshow
23.648438 0 m /a glyphshow
33.453125 0 m /n glyphshow
43.593750 0 m /space glyphshow
48.679688 0 m /A glyphshow
58.750000 0 m /v glyphshow
68.218750 0 m /e glyphshow
78.062500 0 m /r glyphshow
84.640625 0 m /a glyphshow
94.445312 0 m /g glyphshow
104.601562 0 m /e glyphshow
114.445312 0 m /space glyphshow
119.531250 0 m /P glyphshow
128.929688 0 m /r glyphshow
135.132812 0 m /e glyphshow
144.976562 0 m /c glyphshow
153.773438 0 m /i glyphshow
158.218750 0 m /s glyphshow
166.554688 0 m /i glyphshow
171.000000 0 m /o glyphshow
180.789062 0 m /n glyphshow
grestore
1.500 setlinewidth
2 setlinecap
1.000 0.000 0.000 setrgbcolor
gsave
328.2 332.6 180 47.52 clipbox
194.919786 116.2656 m
294.385027 269.5572 l
393.850267 257.6376 l
493.315508 273.7152 l
stroke
grestore
1.000 setlinewidth
0 setlinecap
gsave
328.2 332.6 180 47.52 clipbox
/o {
gsave
newpath
translate
1.0 setlinewidth
1 setlinejoin
0 setlinecap
0 -3 m
0.795609 -3 1.55874 -2.683901 2.12132 -2.12132 c
2.683901 -1.55874 3 -0.795609 3 0 c
3 0.795609 2.683901 1.55874 2.12132 2.12132 c
1.55874 2.683901 0.795609 3 0 3 c
-0.795609 3 -1.55874 2.683901 -2.12132 2.12132 c
-2.683901 1.55874 -3 0.795609 -3 0 c
-3 -0.795609 -2.683901 -1.55874 -2.12132 -2.12132 c
-1.55874 -2.683901 -0.795609 -3 0 -3 c
cl

gsave
1.000 0.000 0.000 setrgbcolor
fill
grestore
stroke
grestore
} bind def
194.92 116.266 o
294.385 269.557 o
393.85 257.638 o
493.316 273.715 o
grestore
1.500 setlinewidth
2 setlinecap
0.647 0.165 0.165 setrgbcolor
gsave
328.2 332.6 180 47.52 clipbox
194.919786 315.5724 m
294.385027 336.3624 l
393.850267 364.0824 l
493.315508 359.0928 l
stroke
grestore
1.000 setlinewidth
0 setlinecap
gsave
328.2 332.6 180 47.52 clipbox
/o {
gsave
newpath
translate
1.0 setlinewidth
1 setlinejoin
0 setlinecap
-3 -3 m
3 3 l
-3 3 m
3 -3 l

gsave
0.647 0.165 0.165 setrgbcolor
fill
grestore
stroke
grestore
} bind def
194.92 315.572 o
294.385 336.362 o
393.85 364.082 o
493.316 359.093 o
grestore
1.500 setlinewidth
[5.55 2.4] 0 setdash
0.000 0.502 0.000 setrgbcolor
gsave
328.2 332.6 180 47.52 clipbox
194.919786 228.2544 m
294.385027 224.0964 l
393.850267 229.9176 l
493.315508 228.8088 l
stroke
grestore
1.000 setlinewidth
0 setlinejoin
[] 0 setdash
gsave
328.2 332.6 180 47.52 clipbox
/o {
gsave
newpath
translate
1.0 setlinewidth
0 setlinejoin
0 setlinecap
0 3 m
-3 -3 l
3 -3 l
cl

gsave
0.000 0.502 0.000 setrgbcolor
fill
grestore
stroke
grestore
} bind def
194.92 228.254 o
294.385 224.096 o
393.85 229.918 o
493.316 228.809 o
grestore
1.500 setlinewidth
1 setlinejoin
2 setlinecap
1.000 0.647 0.000 setrgbcolor
gsave
328.2 332.6 180 47.52 clipbox
194.919786 301.4352 m
294.385027 302.8212 l
393.850267 294.228 l
493.315508 359.0928 l
stroke
grestore
1.000 setlinewidth
0 setlinejoin
0 setlinecap
gsave
328.2 332.6 180 47.52 clipbox
/o {
gsave
newpath
translate
1.0 setlinewidth
0 setlinejoin
0 setlinecap
-0 -3 m
3 3 l
-3 3 l
cl

gsave
1.000 0.647 0.000 setrgbcolor
fill
grestore
stroke
grestore
} bind def
194.92 301.435 o
294.385 302.821 o
393.85 294.228 o
493.316 359.093 o
grestore
0.800 setlinewidth
2 setlinecap
[] 0 setdash
0.000 setgray
gsave
180 47.52 m
180 380.16 l
stroke
grestore
gsave
508.235294 47.52 m
508.235294 380.16 l
stroke
grestore
gsave
180 47.52 m
508.235294 47.52 l
stroke
grestore
gsave
180 380.16 m
508.235294 380.16 l
stroke
grestore
1.000 setlinewidth
0 setlinecap
0.800 setgray
gsave
385.397794 55.52 m
497.035294 55.52 l
499.168627 55.52 500.235294 56.586667 500.235294 58.72 c
500.235294 151.0575 l
500.235294 153.190833 499.168627 154.2575 497.035294 154.2575 c
385.397794 154.2575 l
383.264461 154.2575 382.197794 153.190833 382.197794 151.0575 c
382.197794 58.72 l
382.197794 56.586667 383.264461 55.52 385.397794 55.52 c
cl
gsave
1.000 setgray
fill
grestore
stroke
grestore
1.500 setlinewidth
1 setlinejoin
2 setlinecap
[] 0 setdash
1.000 0.000 0.000 setrgbcolor
gsave
388.597794 141.30125 m
420.597794 141.30125 l
stroke
grestore
1.000 setlinewidth
0 setlinecap
gsave
/o {
gsave
newpath
translate
1.0 setlinewidth
1 setlinejoin
0 setlinecap
0 -3 m
0.795609 -3 1.55874 -2.683901 2.12132 -2.12132 c
2.683901 -1.55874 3 -0.795609 3 0 c
3 0.795609 2.683901 1.55874 2.12132 2.12132 c
1.55874 2.683901 0.795609 3 0 3 c
-0.795609 3 -1.55874 2.683901 -2.12132 2.12132 c
-2.683901 1.55874 -3 0.795609 -3 0 c
-3 -0.795609 -2.683901 -1.55874 -2.12132 -2.12132 c
-1.55874 -2.683901 -0.795609 -3 0 -3 c
cl

gsave
1.000 0.000 0.000 setrgbcolor
fill
grestore
stroke
grestore
} bind def
404.598 141.301 o
grestore
0.000 setgray
gsave
433.397794 135.701250 translate
0.000000 rotate
0.000000 0 m /E glyphshow
10.109375 0 m /A glyphshow
21.054688 0 m /L glyphshow
29.968750 0 m /one glyphshow
40.148438 0 m /eight glyphshow
grestore
1.500 setlinewidth
2 setlinecap
0.647 0.165 0.165 setrgbcolor
gsave
388.597794 117.816875 m
420.597794 117.816875 l
stroke
grestore
1.000 setlinewidth
0 setlinecap
gsave
/o {
gsave
newpath
translate
1.0 setlinewidth
1 setlinejoin
0 setlinecap
-3 -3 m
3 3 l
-3 3 m
3 -3 l

gsave
0.647 0.165 0.165 setrgbcolor
fill
grestore
stroke
grestore
} bind def
404.598 117.817 o
grestore
0.000 setgray
gsave
433.397794 112.216875 translate
0.000000 rotate
0.000000 0 m /E glyphshow
10.109375 0 m /A glyphshow
21.054688 0 m /L glyphshow
29.718750 0 m /hyphen glyphshow
35.492188 0 m /D glyphshow
47.812500 0 m /B glyphshow
grestore
1.500 setlinewidth
[5.55 2.4] 0 setdash
0.000 0.502 0.000 setrgbcolor
gsave
388.597794 94.3325 m
420.597794 94.3325 l
stroke
grestore
1.000 setlinewidth
0 setlinejoin
[] 0 setdash
gsave
/o {
gsave
newpath
translate
1.0 setlinewidth
0 setlinejoin
0 setlinecap
0 3 m
-3 -3 l
3 -3 l
cl

gsave
0.000 0.502 0.000 setrgbcolor
fill
grestore
stroke
grestore
} bind def
404.598 94.3325 o
grestore
0.000 setgray
gsave
433.397794 88.732500 translate
0.000000 rotate
0.000000 0 m /E glyphshow
10.109375 0 m /A glyphshow
21.054688 0 m /L glyphshow
29.718750 0 m /hyphen glyphshow
35.492188 0 m /D glyphshow
47.812500 0 m /O glyphshow
grestore
1.500 setlinewidth
1 setlinejoin
2 setlinecap
1.000 0.647 0.000 setrgbcolor
gsave
388.597794 70.848125 m
420.597794 70.848125 l
stroke
grestore
1.000 setlinewidth
0 setlinejoin
0 setlinecap
gsave
/o {
gsave
newpath
translate
1.0 setlinewidth
0 setlinejoin
0 setlinecap
-0 -3 m
3 3 l
-3 3 l
cl

gsave
1.000 0.647 0.000 setrgbcolor
fill
grestore
stroke
grestore
} bind def
404.598 70.8481 o
grestore
0.000 setgray
gsave
433.397794 65.248125 translate
0.000000 rotate
0.000000 0 m /E glyphshow
10.109375 0 m /A glyphshow
21.054688 0 m /L glyphshow
29.718750 0 m /hyphen glyphshow
35.492188 0 m /D glyphshow
47.812500 0 m /S glyphshow
grestore
gsave
573.882353 47.52 m
902.117647 47.52 l
902.117647 380.16 l
573.882353 380.16 l
cl
1.000 setgray
fill
grestore
0.800 setlinewidth
1 setlinejoin
gsave
/o {
gsave
newpath
translate
0.8 setlinewidth
1 setlinejoin
0 setlinecap
0 0 m
0 -3.5 l

gsave
0.000 setgray
fill
grestore
stroke
grestore
} bind def
588.802 47.52 o
grestore
gsave
578.614639 28.363750 translate
0.000000 rotate
0.000000 0 m /one glyphshow
10.179688 0 m /zero glyphshow
grestore
gsave
/o {
gsave
newpath
translate
0.8 setlinewidth
1 setlinejoin
0 setlinecap
0 0 m
0 -3.5 l

gsave
0.000 setgray
fill
grestore
stroke
grestore
} bind def
663.401 47.52 o
grestore
gsave
653.213570 28.363750 translate
0.000000 rotate
0.000000 0 m /one glyphshow
10.179688 0 m /five glyphshow
grestore
gsave
/o {
gsave
newpath
translate
0.8 setlinewidth
1 setlinejoin
0 setlinecap
0 0 m
0 -3.5 l

gsave
0.000 setgray
fill
grestore
stroke
grestore
} bind def
738 47.52 o
grestore
gsave
727.812500 28.363750 translate
0.000000 rotate
0.000000 0 m /two glyphshow
10.179688 0 m /zero glyphshow
grestore
gsave
/o {
gsave
newpath
translate
0.8 setlinewidth
1 setlinejoin
0 setlinecap
0 0 m
0 -3.5 l

gsave
0.000 setgray
fill
grestore
stroke
grestore
} bind def
812.599 47.52 o
grestore
gsave
802.411430 28.363750 translate
0.000000 rotate
0.000000 0 m /two glyphshow
10.179688 0 m /five glyphshow
grestore
gsave
/o {
gsave
newpath
translate
0.8 setlinewidth
1 setlinejoin
0 setlinecap
0 0 m
0 -3.5 l

gsave
0.000 setgray
fill
grestore
stroke
grestore
} bind def
887.198 47.52 o
grestore
gsave
877.010361 28.363750 translate
0.000000 rotate
0.000000 0 m /three glyphshow
10.179688 0 m /zero glyphshow
grestore
gsave
584.429688 8.879375 translate
0.000000 rotate
0.000000 0 m /parenleft glyphshow
6.242188 0 m /b glyphshow
16.398438 0 m /parenright glyphshow
22.640625 0 m /space glyphshow
27.726562 0 m /M glyphshow
41.531250 0 m /a glyphshow
51.335938 0 m /x glyphshow
60.804688 0 m /i glyphshow
65.250000 0 m /m glyphshow
80.835938 0 m /u glyphshow
90.976562 0 m /m glyphshow
106.562500 0 m /space glyphshow
111.648438 0 m /L glyphshow
120.312500 0 m /e glyphshow
130.156250 0 m /n glyphshow
140.296875 0 m /g glyphshow
150.453125 0 m /t glyphshow
156.726562 0 m /h glyphshow
166.867188 0 m /space glyphshow
171.953125 0 m /o glyphshow
181.742188 0 m /f glyphshow
187.375000 0 m /space glyphshow
192.460938 0 m /E glyphshow
202.570312 0 m /n glyphshow
212.710938 0 m /t glyphshow
218.984375 0 m /i glyphshow
223.429688 0 m /t glyphshow
229.703125 0 m /y glyphshow
239.171875 0 m /space glyphshow
244.257812 0 m /C glyphshow
255.429688 0 m /o glyphshow
265.218750 0 m /n glyphshow
275.359375 0 m /t glyphshow
281.632812 0 m /e glyphshow
291.226562 0 m /x glyphshow
300.695312 0 m /t glyphshow
grestore
gsave
/o {
gsave
newpath
translate
0.8 setlinewidth
1 setlinejoin
0 setlinecap
0 0 m
-3.5 0 l

gsave
0.000 setgray
fill
grestore
stroke
grestore
} bind def
573.882 47.52 o
grestore
gsave
546.507353 41.441875 translate
0.000000 rotate
0.000000 0 m /six glyphshow
10.179688 0 m /zero glyphshow
grestore
gsave
/o {
gsave
newpath
translate
0.8 setlinewidth
1 setlinejoin
0 setlinecap
0 0 m
-3.5 0 l

gsave
0.000 setgray
fill
grestore
stroke
grestore
} bind def
573.882 130.68 o
grestore
gsave
546.507353 124.601875 translate
0.000000 rotate
0.000000 0 m /six glyphshow
10.179688 0 m /three glyphshow
grestore
gsave
/o {
gsave
newpath
translate
0.8 setlinewidth
1 setlinejoin
0 setlinecap
0 0 m
-3.5 0 l

gsave
0.000 setgray
fill
grestore
stroke
grestore
} bind def
573.882 213.84 o
grestore
gsave
546.507353 207.761875 translate
0.000000 rotate
0.000000 0 m /six glyphshow
10.179688 0 m /six glyphshow
grestore
gsave
/o {
gsave
newpath
translate
0.8 setlinewidth
1 setlinejoin
0 setlinecap
0 0 m
-3.5 0 l

gsave
0.000 setgray
fill
grestore
stroke
grestore
} bind def
573.882 297 o
grestore
gsave
546.507353 290.921875 translate
0.000000 rotate
0.000000 0 m /six glyphshow
10.179688 0 m /nine glyphshow
grestore
gsave
/o {
gsave
newpath
translate
0.8 setlinewidth
1 setlinejoin
0 setlinecap
0 0 m
-3.5 0 l

gsave
0.000 setgray
fill
grestore
stroke
grestore
} bind def
573.882 380.16 o
grestore
gsave
546.507353 374.081875 translate
0.000000 rotate
0.000000 0 m /seven glyphshow
10.179688 0 m /two glyphshow
grestore
gsave
539.179228 118.332188 translate
90.000000 rotate
0.000000 0 m /M glyphshow
13.804688 0 m /e glyphshow
23.648438 0 m /a glyphshow
33.453125 0 m /n glyphshow
43.593750 0 m /space glyphshow
48.679688 0 m /A glyphshow
58.750000 0 m /v glyphshow
68.218750 0 m /e glyphshow
78.062500 0 m /r glyphshow
84.640625 0 m /a glyphshow
94.445312 0 m /g glyphshow
104.601562 0 m /e glyphshow
114.445312 0 m /space glyphshow
119.531250 0 m /P glyphshow
128.929688 0 m /r glyphshow
135.132812 0 m /e glyphshow
144.976562 0 m /c glyphshow
153.773438 0 m /i glyphshow
158.218750 0 m /s glyphshow
166.554688 0 m /i glyphshow
171.000000 0 m /o glyphshow
180.789062 0 m /n glyphshow
grestore
1.500 setlinewidth
2 setlinecap
1.000 0.000 0.000 setrgbcolor
gsave
328.2 332.6 573.9 47.52 clipbox
588.802139 288.1296 m
663.40107 296.4456 l
738 289.2384 l
812.59893 265.9536 l
887.197861 269.5572 l
stroke
grestore
1.000 setlinewidth
0 setlinecap
gsave
328.2 332.6 573.9 47.52 clipbox
/o {
gsave
newpath
translate
1.0 setlinewidth
1 setlinejoin
0 setlinecap
0 -3 m
0.795609 -3 1.55874 -2.683901 2.12132 -2.12132 c
2.683901 -1.55874 3 -0.795609 3 0 c
3 0.795609 2.683901 1.55874 2.12132 2.12132 c
1.55874 2.683901 0.795609 3 0 3 c
-0.795609 3 -1.55874 2.683901 -2.12132 2.12132 c
-2.683901 1.55874 -3 0.795609 -3 0 c
-3 -0.795609 -2.683901 -1.55874 -2.12132 -2.12132 c
-1.55874 -2.683901 -0.795609 -3 0 -3 c
cl

gsave
1.000 0.000 0.000 setrgbcolor
fill
grestore
stroke
grestore
} bind def
588.802 288.13 o
663.401 296.446 o
738 289.238 o
812.599 265.954 o
887.198 269.557 o
grestore
1.500 setlinewidth
2 setlinecap
0.647 0.165 0.165 setrgbcolor
gsave
328.2 332.6 573.9 47.52 clipbox
588.802139 292.0104 m
663.40107 338.8572 l
738 341.352 l
812.59893 345.51 l
887.197861 336.3624 l
stroke
grestore
1.000 setlinewidth
0 setlinecap
gsave
328.2 332.6 573.9 47.52 clipbox
/o {
gsave
newpath
translate
1.0 setlinewidth
1 setlinejoin
0 setlinecap
-3 -3 m
3 3 l
-3 3 m
3 -3 l

gsave
0.647 0.165 0.165 setrgbcolor
fill
grestore
stroke
grestore
} bind def
588.802 292.01 o
663.401 338.857 o
738 341.352 o
812.599 345.51 o
887.198 336.362 o
grestore
1.500 setlinewidth
[5.55 2.4] 0 setdash
0.000 0.502 0.000 setrgbcolor
gsave
328.2 332.6 573.9 47.52 clipbox
588.802139 233.7984 m
663.40107 239.8968 l
738 235.1844 l
812.59893 236.5704 l
887.197861 224.0964 l
stroke
grestore
1.000 setlinewidth
0 setlinejoin
[] 0 setdash
gsave
328.2 332.6 573.9 47.52 clipbox
/o {
gsave
newpath
translate
1.0 setlinewidth
0 setlinejoin
0 setlinecap
0 3 m
-3 -3 l
3 -3 l
cl

gsave
0.000 0.502 0.000 setrgbcolor
fill
grestore
stroke
grestore
} bind def
588.802 233.798 o
663.401 239.897 o
738 235.184 o
812.599 236.57 o
887.198 224.096 o
grestore
1.500 setlinewidth
1 setlinejoin
2 setlinecap
1.000 0.647 0.000 setrgbcolor
gsave
328.2 332.6 573.9 47.52 clipbox
588.802139 255.42 m
663.40107 296.4456 l
738 299.4948 l
812.59893 291.456 l
887.197861 302.8212 l
stroke
grestore
1.000 setlinewidth
0 setlinejoin
0 setlinecap
gsave
328.2 332.6 573.9 47.52 clipbox
/o {
gsave
newpath
translate
1.0 setlinewidth
0 setlinejoin
0 setlinecap
-0 -3 m
3 3 l
-3 3 l
cl

gsave
1.000 0.647 0.000 setrgbcolor
fill
grestore
stroke
grestore
} bind def
588.802 255.42 o
663.401 296.446 o
738 299.495 o
812.599 291.456 o
887.198 302.821 o
grestore
0.800 setlinewidth
2 setlinecap
[] 0 setdash
0.000 setgray
gsave
573.882353 47.52 m
573.882353 380.16 l
stroke
grestore
gsave
902.117647 47.52 m
902.117647 380.16 l
stroke
grestore
gsave
573.882353 47.52 m
902.117647 47.52 l
stroke
grestore
gsave
573.882353 380.16 m
902.117647 380.16 l
stroke
grestore
1.000 setlinewidth
0 setlinecap
0.800 setgray
gsave
779.280147 55.52 m
890.917647 55.52 l
893.05098 55.52 894.117647 56.586667 894.117647 58.72 c
894.117647 151.0575 l
894.117647 153.190833 893.05098 154.2575 890.917647 154.2575 c
779.280147 154.2575 l
777.146814 154.2575 776.080147 153.190833 776.080147 151.0575 c
776.080147 58.72 l
776.080147 56.586667 777.146814 55.52 779.280147 55.52 c
cl
gsave
1.000 setgray
fill
grestore
stroke
grestore
1.500 setlinewidth
1 setlinejoin
2 setlinecap
[] 0 setdash
1.000 0.000 0.000 setrgbcolor
gsave
782.480147 141.30125 m
814.480147 141.30125 l
stroke
grestore
1.000 setlinewidth
0 setlinecap
gsave
/o {
gsave
newpath
translate
1.0 setlinewidth
1 setlinejoin
0 setlinecap
0 -3 m
0.795609 -3 1.55874 -2.683901 2.12132 -2.12132 c
2.683901 -1.55874 3 -0.795609 3 0 c
3 0.795609 2.683901 1.55874 2.12132 2.12132 c
1.55874 2.683901 0.795609 3 0 3 c
-0.795609 3 -1.55874 2.683901 -2.12132 2.12132 c
-2.683901 1.55874 -3 0.795609 -3 0 c
-3 -0.795609 -2.683901 -1.55874 -2.12132 -2.12132 c
-1.55874 -2.683901 -0.795609 -3 0 -3 c
cl

gsave
1.000 0.000 0.000 setrgbcolor
fill
grestore
stroke
grestore
} bind def
798.48 141.301 o
grestore
0.000 setgray
gsave
827.280147 135.701250 translate
0.000000 rotate
0.000000 0 m /E glyphshow
10.109375 0 m /A glyphshow
21.054688 0 m /L glyphshow
29.968750 0 m /one glyphshow
40.148438 0 m /eight glyphshow
grestore
1.500 setlinewidth
2 setlinecap
0.647 0.165 0.165 setrgbcolor
gsave
782.480147 117.816875 m
814.480147 117.816875 l
stroke
grestore
1.000 setlinewidth
0 setlinecap
gsave
/o {
gsave
newpath
translate
1.0 setlinewidth
1 setlinejoin
0 setlinecap
-3 -3 m
3 3 l
-3 3 m
3 -3 l

gsave
0.647 0.165 0.165 setrgbcolor
fill
grestore
stroke
grestore
} bind def
798.48 117.817 o
grestore
0.000 setgray
gsave
827.280147 112.216875 translate
0.000000 rotate
0.000000 0 m /E glyphshow
10.109375 0 m /A glyphshow
21.054688 0 m /L glyphshow
29.718750 0 m /hyphen glyphshow
35.492188 0 m /D glyphshow
47.812500 0 m /B glyphshow
grestore
1.500 setlinewidth
[5.55 2.4] 0 setdash
0.000 0.502 0.000 setrgbcolor
gsave
782.480147 94.3325 m
814.480147 94.3325 l
stroke
grestore
1.000 setlinewidth
0 setlinejoin
[] 0 setdash
gsave
/o {
gsave
newpath
translate
1.0 setlinewidth
0 setlinejoin
0 setlinecap
0 3 m
-3 -3 l
3 -3 l
cl

gsave
0.000 0.502 0.000 setrgbcolor
fill
grestore
stroke
grestore
} bind def
798.48 94.3325 o
grestore
0.000 setgray
gsave
827.280147 88.732500 translate
0.000000 rotate
0.000000 0 m /E glyphshow
10.109375 0 m /A glyphshow
21.054688 0 m /L glyphshow
29.718750 0 m /hyphen glyphshow
35.492188 0 m /D glyphshow
47.812500 0 m /O glyphshow
grestore
1.500 setlinewidth
1 setlinejoin
2 setlinecap
1.000 0.647 0.000 setrgbcolor
gsave
782.480147 70.848125 m
814.480147 70.848125 l
stroke
grestore
1.000 setlinewidth
0 setlinejoin
0 setlinecap
gsave
/o {
gsave
newpath
translate
1.0 setlinewidth
0 setlinejoin
0 setlinecap
-0 -3 m
3 3 l
-3 3 l
cl

gsave
1.000 0.647 0.000 setrgbcolor
fill
grestore
stroke
grestore
} bind def
798.48 70.8481 o
grestore
0.000 setgray
gsave
827.280147 65.248125 translate
0.000000 rotate
0.000000 0 m /E glyphshow
10.109375 0 m /A glyphshow
21.054688 0 m /L glyphshow
29.718750 0 m /hyphen glyphshow
35.492188 0 m /D glyphshow
47.812500 0 m /S glyphshow
grestore
gsave
967.764706 47.52 m
1296 47.52 l
1296 380.16 l
967.764706 380.16 l
cl
1.000 setgray
fill
grestore
0.800 setlinewidth
1 setlinejoin
gsave
/o {
gsave
newpath
translate
0.8 setlinewidth
1 setlinejoin
0 setlinecap
0 0 m
0 -3.5 l

gsave
0.000 setgray
fill
grestore
stroke
grestore
} bind def
982.684 47.52 o
grestore
gsave
967.403242 28.363750 translate
0.000000 rotate
0.000000 0 m /one glyphshow
10.179688 0 m /zero glyphshow
20.359375 0 m /zero glyphshow
grestore
gsave
/o {
gsave
newpath
translate
0.8 setlinewidth
1 setlinejoin
0 setlinecap
0 0 m
0 -3.5 l

gsave
0.000 setgray
fill
grestore
stroke
grestore
} bind def
1057.28 47.52 o
grestore
gsave
1042.002172 28.363750 translate
0.000000 rotate
0.000000 0 m /one glyphshow
10.179688 0 m /five glyphshow
20.359375 0 m /zero glyphshow
grestore
gsave
/o {
gsave
newpath
translate
0.8 setlinewidth
1 setlinejoin
0 setlinecap
0 0 m
0 -3.5 l

gsave
0.000 setgray
fill
grestore
stroke
grestore
} bind def
1131.88 47.52 o
grestore
gsave
1116.601103 28.363750 translate
0.000000 rotate
0.000000 0 m /two glyphshow
10.179688 0 m /zero glyphshow
20.359375 0 m /zero glyphshow
grestore
gsave
/o {
gsave
newpath
translate
0.8 setlinewidth
1 setlinejoin
0 setlinecap
0 0 m
0 -3.5 l

gsave
0.000 setgray
fill
grestore
stroke
grestore
} bind def
1206.48 47.52 o
grestore
gsave
1191.200033 28.363750 translate
0.000000 rotate
0.000000 0 m /two glyphshow
10.179688 0 m /five glyphshow
20.359375 0 m /zero glyphshow
grestore
gsave
/o {
gsave
newpath
translate
0.8 setlinewidth
1 setlinejoin
0 setlinecap
0 0 m
0 -3.5 l

gsave
0.000 setgray
fill
grestore
stroke
grestore
} bind def
1281.08 47.52 o
grestore
gsave
1265.798964 28.363750 translate
0.000000 rotate
0.000000 0 m /three glyphshow
10.179688 0 m /zero glyphshow
20.359375 0 m /zero glyphshow
grestore
gsave
965.624540 8.879375 translate
0.000000 rotate
0.000000 0 m /parenleft glyphshow
6.242188 0 m /c glyphshow
15.039062 0 m /parenright glyphshow
21.281250 0 m /space glyphshow
26.367188 0 m /M glyphshow
40.171875 0 m /a glyphshow
49.976562 0 m /x glyphshow
59.445312 0 m /i glyphshow
63.890625 0 m /m glyphshow
79.476562 0 m /u glyphshow
89.617188 0 m /m glyphshow
105.203125 0 m /space glyphshow
110.289062 0 m /L glyphshow
118.953125 0 m /e glyphshow
128.796875 0 m /n glyphshow
138.937500 0 m /g glyphshow
149.093750 0 m /t glyphshow
155.367188 0 m /h glyphshow
165.507812 0 m /space glyphshow
170.593750 0 m /o glyphshow
180.382812 0 m /f glyphshow
186.015625 0 m /space glyphshow
191.101562 0 m /C glyphshow
202.273438 0 m /a glyphshow
212.078125 0 m /n glyphshow
222.218750 0 m /d glyphshow
232.375000 0 m /i glyphshow
236.820312 0 m /d glyphshow
246.976562 0 m /a glyphshow
256.781250 0 m /t glyphshow
263.054688 0 m /e glyphshow
272.898438 0 m /space glyphshow
277.984375 0 m /A glyphshow
288.929688 0 m /s glyphshow
297.265625 0 m /p glyphshow
307.421875 0 m /e glyphshow
317.265625 0 m /c glyphshow
326.062500 0 m /t glyphshow
grestore
gsave
/o {
gsave
newpath
translate
0.8 setlinewidth
1 setlinejoin
0 setlinecap
0 0 m
-3.5 0 l

gsave
0.000 setgray
fill
grestore
stroke
grestore
} bind def
967.765 47.52 o
grestore
gsave
940.389706 41.441875 translate
0.000000 rotate
0.000000 0 m /five glyphshow
10.179688 0 m /five glyphshow
grestore
gsave
/o {
gsave
newpath
translate
0.8 setlinewidth
1 setlinejoin
0 setlinecap
0 0 m
-3.5 0 l

gsave
0.000 setgray
fill
grestore
stroke
grestore
} bind def
967.765 151.408 o
grestore
gsave
940.389706 145.330191 translate
0.000000 rotate
0.000000 0 m /six glyphshow
10.179688 0 m /zero glyphshow
grestore
gsave
/o {
gsave
newpath
translate
0.8 setlinewidth
1 setlinejoin
0 setlinecap
0 0 m
-3.5 0 l

gsave
0.000 setgray
fill
grestore
stroke
grestore
} bind def
967.765 255.297 o
grestore
gsave
940.389706 249.218508 translate
0.000000 rotate
0.000000 0 m /six glyphshow
10.179688 0 m /five glyphshow
grestore
gsave
/o {
gsave
newpath
translate
0.8 setlinewidth
1 setlinejoin
0 setlinecap
0 0 m
-3.5 0 l

gsave
0.000 setgray
fill
grestore
stroke
grestore
} bind def
967.765 359.185 o
grestore
gsave
940.389706 353.106824 translate
0.000000 rotate
0.000000 0 m /seven glyphshow
10.179688 0 m /zero glyphshow
grestore
gsave
933.061581 118.332188 translate
90.000000 rotate
0.000000 0 m /M glyphshow
13.804688 0 m /e glyphshow
23.648438 0 m /a glyphshow
33.453125 0 m /n glyphshow
43.593750 0 m /space glyphshow
48.679688 0 m /A glyphshow
58.750000 0 m /v glyphshow
68.218750 0 m /e glyphshow
78.062500 0 m /r glyphshow
84.640625 0 m /a glyphshow
94.445312 0 m /g glyphshow
104.601562 0 m /e glyphshow
114.445312 0 m /space glyphshow
119.531250 0 m /P glyphshow
128.929688 0 m /r glyphshow
135.132812 0 m /e glyphshow
144.976562 0 m /c glyphshow
153.773438 0 m /i glyphshow
158.218750 0 m /s glyphshow
166.554688 0 m /i glyphshow
171.000000 0 m /o glyphshow
180.789062 0 m /n glyphshow
grestore
1.500 setlinewidth
2 setlinecap
1.000 0.000 0.000 setrgbcolor
gsave
328.2 332.6 967.8 47.52 clipbox
982.684492 122.942918 m
1057.283422 216.234626 l
1131.882353 240.960045 l
1206.481283 333.420646 l
1281.080214 317.837399 l
stroke
grestore
1.000 setlinewidth
0 setlinecap
gsave
328.2 332.6 967.8 47.52 clipbox
/o {
gsave
newpath
translate
1.0 setlinewidth
1 setlinejoin
0 setlinecap
0 -3 m
0.795609 -3 1.55874 -2.683901 2.12132 -2.12132 c
2.683901 -1.55874 3 -0.795609 3 0 c
3 0.795609 2.683901 1.55874 2.12132 2.12132 c
1.55874 2.683901 0.795609 3 0 3 c
-0.795609 3 -1.55874 2.683901 -2.12132 2.12132 c
-2.683901 1.55874 -3 0.795609 -3 0 c
-3 -0.795609 -2.683901 -1.55874 -2.12132 -2.12132 c
-1.55874 -2.683901 -0.795609 -3 0 -3 c
cl

gsave
1.000 0.000 0.000 setrgbcolor
fill
grestore
stroke
grestore
} bind def
982.684 122.943 o
1057.28 216.235 o
1131.88 240.96 o
1206.48 333.421 o
1281.08 317.837 o
grestore
1.500 setlinewidth
2 setlinecap
0.647 0.165 0.165 setrgbcolor
gsave
328.2 332.6 967.8 47.52 clipbox
982.684492 284.177585 m
1057.283422 316.798516 l
1131.882353 350.45833 l
1206.481283 356.483853 l
1281.080214 367.911568 l
stroke
grestore
1.000 setlinewidth
0 setlinecap
gsave
328.2 332.6 967.8 47.52 clipbox
/o {
gsave
newpath
translate
1.0 setlinewidth
1 setlinejoin
0 setlinecap
-3 -3 m
3 3 l
-3 3 m
3 -3 l

gsave
0.647 0.165 0.165 setrgbcolor
fill
grestore
stroke
grestore
} bind def
982.684 284.178 o
1057.28 316.799 o
1131.88 350.458 o
1206.48 356.484 o
1281.08 367.912 o
grestore
1.500 setlinewidth
[5.55 2.4] 0 setdash
0.000 0.502 0.000 setrgbcolor
gsave
328.2 332.6 967.8 47.52 clipbox
982.684492 217.896839 m
1057.283422 239.297832 l
1131.882353 255.504409 l
1206.481283 287.502011 l
1281.080214 283.762031 l
stroke
grestore
1.000 setlinewidth
0 setlinejoin
[] 0 setdash
gsave
328.2 332.6 967.8 47.52 clipbox
/o {
gsave
newpath
translate
1.0 setlinewidth
0 setlinejoin
0 setlinecap
0 3 m
-3 -3 l
3 -3 l
cl

gsave
0.000 0.502 0.000 setrgbcolor
fill
grestore
stroke
grestore
} bind def
982.684 217.897 o
1057.28 239.298 o
1131.88 255.504 o
1206.48 287.502 o
1281.08 283.762 o
grestore
1.500 setlinewidth
1 setlinejoin
2 setlinecap
1.000 0.647 0.000 setrgbcolor
gsave
328.2 332.6 967.8 47.52 clipbox
982.684492 252.179983 m
1057.283422 299.760832 l
1131.882353 328.641784 l
1206.481283 330.09622 l
1281.080214 342.770595 l
stroke
grestore
1.000 setlinewidth
0 setlinejoin
0 setlinecap
gsave
328.2 332.6 967.8 47.52 clipbox
/o {
gsave
newpath
translate
1.0 setlinewidth
0 setlinejoin
0 setlinecap
-0 -3 m
3 3 l
-3 3 l
cl

gsave
1.000 0.647 0.000 setrgbcolor
fill
grestore
stroke
grestore
} bind def
982.684 252.18 o
1057.28 299.761 o
1131.88 328.642 o
1206.48 330.096 o
1281.08 342.771 o
grestore
0.800 setlinewidth
2 setlinecap
[] 0 setdash
0.000 setgray
gsave
967.764706 47.52 m
967.764706 380.16 l
stroke
grestore
gsave
1296 47.52 m
1296 380.16 l
stroke
grestore
gsave
967.764706 47.52 m
1296 47.52 l
stroke
grestore
gsave
967.764706 380.16 m
1296 380.16 l
stroke
grestore
1.000 setlinewidth
0 setlinecap
0.800 setgray
gsave
1173.1625 55.52 m
1284.8 55.52 l
1286.933333 55.52 1288 56.586667 1288 58.72 c
1288 151.0575 l
1288 153.190833 1286.933333 154.2575 1284.8 154.2575 c
1173.1625 154.2575 l
1171.029167 154.2575 1169.9625 153.190833 1169.9625 151.0575 c
1169.9625 58.72 l
1169.9625 56.586667 1171.029167 55.52 1173.1625 55.52 c
cl
gsave
1.000 setgray
fill
grestore
stroke
grestore
1.500 setlinewidth
1 setlinejoin
2 setlinecap
[] 0 setdash
1.000 0.000 0.000 setrgbcolor
gsave
1176.3625 141.30125 m
1208.3625 141.30125 l
stroke
grestore
1.000 setlinewidth
0 setlinecap
gsave
/o {
gsave
newpath
translate
1.0 setlinewidth
1 setlinejoin
0 setlinecap
0 -3 m
0.795609 -3 1.55874 -2.683901 2.12132 -2.12132 c
2.683901 -1.55874 3 -0.795609 3 0 c
3 0.795609 2.683901 1.55874 2.12132 2.12132 c
1.55874 2.683901 0.795609 3 0 3 c
-0.795609 3 -1.55874 2.683901 -2.12132 2.12132 c
-2.683901 1.55874 -3 0.795609 -3 0 c
-3 -0.795609 -2.683901 -1.55874 -2.12132 -2.12132 c
-1.55874 -2.683901 -0.795609 -3 0 -3 c
cl

gsave
1.000 0.000 0.000 setrgbcolor
fill
grestore
stroke
grestore
} bind def
1192.36 141.301 o
grestore
0.000 setgray
gsave
1221.162500 135.701250 translate
0.000000 rotate
0.000000 0 m /E glyphshow
10.109375 0 m /A glyphshow
21.054688 0 m /L glyphshow
29.968750 0 m /one glyphshow
40.148438 0 m /eight glyphshow
grestore
1.500 setlinewidth
2 setlinecap
0.647 0.165 0.165 setrgbcolor
gsave
1176.3625 117.816875 m
1208.3625 117.816875 l
stroke
grestore
1.000 setlinewidth
0 setlinecap
gsave
/o {
gsave
newpath
translate
1.0 setlinewidth
1 setlinejoin
0 setlinecap
-3 -3 m
3 3 l
-3 3 m
3 -3 l

gsave
0.647 0.165 0.165 setrgbcolor
fill
grestore
stroke
grestore
} bind def
1192.36 117.817 o
grestore
0.000 setgray
gsave
1221.162500 112.216875 translate
0.000000 rotate
0.000000 0 m /E glyphshow
10.109375 0 m /A glyphshow
21.054688 0 m /L glyphshow
29.718750 0 m /hyphen glyphshow
35.492188 0 m /D glyphshow
47.812500 0 m /B glyphshow
grestore
1.500 setlinewidth
[5.55 2.4] 0 setdash
0.000 0.502 0.000 setrgbcolor
gsave
1176.3625 94.3325 m
1208.3625 94.3325 l
stroke
grestore
1.000 setlinewidth
0 setlinejoin
[] 0 setdash
gsave
/o {
gsave
newpath
translate
1.0 setlinewidth
0 setlinejoin
0 setlinecap
0 3 m
-3 -3 l
3 -3 l
cl

gsave
0.000 0.502 0.000 setrgbcolor
fill
grestore
stroke
grestore
} bind def
1192.36 94.3325 o
grestore
0.000 setgray
gsave
1221.162500 88.732500 translate
0.000000 rotate
0.000000 0 m /E glyphshow
10.109375 0 m /A glyphshow
21.054688 0 m /L glyphshow
29.718750 0 m /hyphen glyphshow
35.492188 0 m /D glyphshow
47.812500 0 m /O glyphshow
grestore
1.500 setlinewidth
1 setlinejoin
2 setlinecap
1.000 0.647 0.000 setrgbcolor
gsave
1176.3625 70.848125 m
1208.3625 70.848125 l
stroke
grestore
1.000 setlinewidth
0 setlinejoin
0 setlinecap
gsave
/o {
gsave
newpath
translate
1.0 setlinewidth
0 setlinejoin
0 setlinecap
-0 -3 m
3 3 l
-3 3 l
cl

gsave
1.000 0.647 0.000 setrgbcolor
fill
grestore
stroke
grestore
} bind def
1192.36 70.8481 o
grestore
0.000 setgray
gsave
1221.162500 65.248125 translate
0.000000 rotate
0.000000 0 m /E glyphshow
10.109375 0 m /A glyphshow
21.054688 0 m /L glyphshow
29.718750 0 m /hyphen glyphshow
35.492188 0 m /D glyphshow
47.812500 0 m /S glyphshow
grestore

end
showpage
